Removed Pin From Net: NetName=GND Pin=C3c-1
Removed Pin From Net: NetName=VCC Pin=C3c-2
Removed Pin From Net: NetName=GND Pin=C5c-1
Removed Pin From Net: NetName=VCC Pin=C5c-2
Removed Member From Class: ClassName=SCuM3_analog_prototype_pcb_v1 Member=C3c
Removed Member From Class: ClassName=SCuM3_analog_prototype_pcb_v1 Member=C5c
Added Room: Name=SCuM3_analog_prototype_pcb_v1
