Removed Pin From Net: NetName=GND Pin=Rocm-1
Removed Pin From Net: NetName=VCC Pin=Rocm-3
Added Pin To Net: NetName=VCC Pin=Rocm-1
Added Pin To Net: NetName=GND Pin=Rocm-3
Added Room: Name=SCuM3_analog_prototype_pcb_v1
